<?xml version="1.0" encoding="iso-8859-1"?>
<!-- Generator: Adobe Illustrator 16.0.0, SVG Export Plug-In . SVG Version: 6.00 Build 0)  -->
<!DOCTYPE svg PUBLIC "-//W3C//DTD SVG 1.1//EN" "http://www.w3.org/Graphics/SVG/1.1/DTD/svg11.dtd">
<svg version="1.1" xmlns="http://www.w3.org/2000/svg" xmlns:xlink="http://www.w3.org/1999/xlink" x="0px" y="0px" width="512px"
	 height="512px" viewBox="0 0 512 512" style="enable-background:new 0 0 512 512;" xml:space="preserve">
<g id="Layer_60">
	<g>
		<g>
			<rect style="fill:#FFFFFF;" width="512" height="512"/>
		</g>
		<g>
			<g>
				<g>
					<circle style="fill:#11D1AC;" cx="256" cy="256" r="85.333"/>
				</g>
				<g>
					<g>
						<rect x="250.667" y="165.334" style="fill:#FFFFFF;" width="10.667" height="181.334"/>
					</g>
					<g>
						<rect x="176.766" y="208" style="fill:#FFFFFF;" width="158.457" height="10.667"/>
					</g>
					<g>
						<rect x="176.766" y="293.334" style="fill:#FFFFFF;" width="158.457" height="10.667"/>
					</g>
					<g>
						<rect x="165.334" y="250.667" style="fill:#FFFFFF;" width="181.332" height="10.667"/>
					</g>
					<g>
						<path style="fill:#FFFFFF;" d="M256,346.668c-26.915,0-48-39.826-48-90.667s21.085-90.667,48-90.667
							c26.916,0,48,39.825,48,90.667S282.916,346.668,256,346.668z M256,176c-20.237,0-37.333,36.635-37.333,80s17.097,80,37.333,80
							s37.333-36.636,37.333-80S276.237,176,256,176z"/>
					</g>
				</g>
			</g>
			<g>
				<path style="fill:#232323;" d="M256,389.334c-73.521,0-133.333-59.813-133.333-133.333h10.667
					c0,67.638,55.029,122.667,122.667,122.667S378.666,323.639,378.666,256S323.639,133.333,256,133.333v-10.667
					c73.52,0,133.333,59.813,133.333,133.333S329.521,389.334,256,389.334z"/>
			</g>
			<g>
				<polygon style="fill:#232323;" points="252.23,153.104 227.124,128.003 252.23,102.901 259.771,110.443 242.21,128.003 
					259.771,145.563 				"/>
			</g>
			<g>
				<rect x="234.667" y="122.667" style="fill:#232323;" width="21.333" height="10.667"/>
			</g>
			<g>
				<path style="fill:#11D1AC;" d="M160,160.003c0,17.675-32,74.667-32,74.667s-32-56.992-32-74.667c0-17.674,14.329-32,32-32
					S160,142.329,160,160.003z"/>
			</g>
			<g>
				<path style="fill:#232323;" d="M128,176c-8.823,0-16-7.177-16-16c0-8.823,7.177-16,16-16c8.823,0,16,7.177,16,16
					C144,168.823,136.823,176,128,176z M128,154.667c-2.941,0-5.333,2.392-5.333,5.333s2.392,5.333,5.333,5.333
					s5.333-2.392,5.333-5.333S130.942,154.667,128,154.667z"/>
			</g>
		</g>
	</g>
</g>
<g id="Layer_1">
</g>
</svg>
