<?xml version="1.0" encoding="iso-8859-1"?>
<!-- Generator: Adobe Illustrator 16.0.0, SVG Export Plug-In . SVG Version: 6.00 Build 0)  -->
<!DOCTYPE svg PUBLIC "-//W3C//DTD SVG 1.1//EN" "http://www.w3.org/Graphics/SVG/1.1/DTD/svg11.dtd">
<svg version="1.1" xmlns="http://www.w3.org/2000/svg" xmlns:xlink="http://www.w3.org/1999/xlink" x="0px" y="0px" width="512px"
	 height="512px" viewBox="0 0 512 512" style="enable-background:new 0 0 512 512;" xml:space="preserve">
<g id="Layer_56">
	<g>
		<g>
			<rect style="fill:#11D1AC;" width="512" height="512"/>
		</g>
		<g>
			<g>
				<polygon style="fill:#232323;" points="384,293.917 270.209,282.087 271.313,271.478 373.333,282.084 373.333,270.226 
					269.093,226.877 273.189,217.028 384,263.108 				"/>
			</g>
			<g>
				<polygon style="fill:#232323;" points="128,293.917 128,263.108 238.812,217.028 242.908,226.877 138.667,270.226 
					138.667,282.084 240.688,271.478 241.792,282.087 				"/>
			</g>
			<g>
				<polygon style="fill:#232323;" points="304.001,380.584 258.611,375.867 259.713,365.258 293.334,368.751 293.334,365.781 
					257.494,350.877 261.591,341.028 304.001,358.664 				"/>
			</g>
			<g>
				<polygon style="fill:#232323;" points="208,380.584 208,358.664 250.411,341.028 254.507,350.877 218.667,365.781 
					218.667,368.751 252.289,365.258 253.39,375.867 				"/>
			</g>
			<g>
				<path style="fill:#FFFFFF;" d="M256,128c-11.781,0-21.333,33.961-21.333,75.852l2.667,113.779
					c0,36.654,8.359,66.37,18.667,66.37s18.667-29.716,18.667-66.37l2.667-113.779C277.334,161.961,267.782,128,256,128z"/>
			</g>
			<g>
				<rect x="250.667" y="352.001" style="fill:#232323;" width="10.667" height="37.333"/>
			</g>
			<g>
				<g>
					<path style="fill:#232323;" d="M269.334,168h-10.667c0-1.47-1.196-2.667-2.667-2.667c-1.47,0-2.667,1.196-2.667,2.667h-10.667
						c0-7.352,5.981-13.333,13.333-13.333C263.353,154.667,269.334,160.649,269.334,168z"/>
				</g>
			</g>
		</g>
	</g>
</g>
<g id="Layer_1">
</g>
</svg>
