<?xml version="1.0" encoding="iso-8859-1"?>
<!-- Generator: Adobe Illustrator 16.0.0, SVG Export Plug-In . SVG Version: 6.00 Build 0)  -->
<!DOCTYPE svg PUBLIC "-//W3C//DTD SVG 1.1//EN" "http://www.w3.org/Graphics/SVG/1.1/DTD/svg11.dtd">
<svg version="1.1" xmlns="http://www.w3.org/2000/svg" xmlns:xlink="http://www.w3.org/1999/xlink" x="0px" y="0px" width="512px"
	 height="512px" viewBox="0 0 512 512" style="enable-background:new 0 0 512 512;" xml:space="preserve">
<g id="Layer_33">
	<g>
		<g>
			<rect style="fill:#FFFFFF;" width="512" height="512"/>
		</g>
		<g>
			<g>
				<rect x="250.667" y="138.667" style="fill:#8891BF;" width="10.667" height="218.667"/>
			</g>
			<g>
				<rect x="213.334" y="352.001" style="fill:#232323;" width="85.333" height="10.667"/>
			</g>
			<g>
				<rect x="192" y="373.334" style="fill:#232323;" width="128" height="10.667"/>
			</g>
			<g>
				<g>
					<g>
						<rect x="336.001" y="154.667" style="fill:#232323;" width="10.665" height="16"/>
					</g>
					<g>
						<rect x="165.334" y="154.667" style="fill:#232323;" width="10.667" height="16"/>
					</g>
					<g>
						
							<rect x="115.512" y="234.667" transform="matrix(0.2249 0.9744 -0.9744 0.2249 378.5478 4.1473)" style="fill:#232323;" width="142.311" height="10.666"/>
					</g>
					<g>
						
							<rect x="320.001" y="168.845" transform="matrix(0.9744 0.2249 -0.2249 0.9744 62.302 -67.0119)" style="fill:#232323;" width="10.666" height="142.311"/>
					</g>
					<g>
						
							<rect x="286.178" y="234.667" transform="matrix(0.2248 0.9744 -0.9744 0.2248 510.8459 -162.1449)" style="fill:#232323;" width="142.311" height="10.667"/>
					</g>
					<g>
						<path style="fill:#8891BF;" d="M298.667,298.667c0,23.568,19.1,42.667,42.667,42.667c23.566,0,42.666-19.099,42.666-42.667
							H298.667z"/>
					</g>
					<g>
						
							<rect x="149.334" y="168.845" transform="matrix(0.9744 0.2249 -0.2249 0.9744 57.9254 -28.6316)" style="fill:#232323;" width="10.667" height="142.312"/>
					</g>
					<g>
						<path style="fill:#8891BF;" d="M125.333,296.001c0,25.042,20.292,45.333,45.333,45.333c25.042,0,45.333-20.291,45.333-45.333
							H125.333z"/>
					</g>
					<g>
						<rect x="138.667" y="165.334" style="fill:#8891BF;" width="234.666" height="10.667"/>
					</g>
				</g>
				<g>
					<circle style="fill:#FFFFFF;" cx="256" cy="170.667" r="10.667"/>
					<path style="fill:#232323;" d="M256,186.667c-8.823,0-16-7.177-16-16c0-8.823,7.177-16,16-16s16,7.177,16,16
						C272.001,179.49,264.823,186.667,256,186.667z M256,165.334c-2.941,0-5.333,2.392-5.333,5.333S253.059,176,256,176
						c2.942,0,5.333-2.392,5.333-5.333S258.942,165.334,256,165.334z"/>
				</g>
			</g>
			<g>
				<rect x="250.667" y="125.333" style="fill:#232323;" width="10.667" height="13.333"/>
			</g>
		</g>
	</g>
</g>
<g id="Layer_1">
</g>
</svg>
