<?xml version="1.0" encoding="iso-8859-1"?>
<!-- Generator: Adobe Illustrator 16.0.0, SVG Export Plug-In . SVG Version: 6.00 Build 0)  -->
<!DOCTYPE svg PUBLIC "-//W3C//DTD SVG 1.1//EN" "http://www.w3.org/Graphics/SVG/1.1/DTD/svg11.dtd">
<svg version="1.1" xmlns="http://www.w3.org/2000/svg" xmlns:xlink="http://www.w3.org/1999/xlink" x="0px" y="0px" width="512px"
	 height="512px" viewBox="0 0 512 512" style="enable-background:new 0 0 512 512;" xml:space="preserve">
<g id="Layer_7">
	<g>
		<g>
			<rect style="fill:#11D1AC;" width="512" height="512"/>
		</g>
		<g>
			<g>
				<path style="fill:#FFFFFF;" d="M192,226.21l-28.876-28.876L192,168.458l28.876,28.876L192,226.21z M178.21,197.334L192,211.124
					l13.791-13.79L192,183.543L178.21,197.334z"/>
			</g>
			<g>
				<path style="fill:#FFFFFF;" d="M320.001,226.21l-28.877-28.876l28.877-28.876l28.876,28.876L320.001,226.21z M306.21,197.334
					l13.791,13.79l13.79-13.79l-13.79-13.791L306.21,197.334z"/>
			</g>
			<g>
				<rect x="128" y="224" style="fill:#FFFFFF;" width="256" height="106.667"/>
			</g>
			<g>
				<path style="fill:#232323;" d="M368,288.001h-95.999v-53.333H368V288.001z M282.667,277.334h74.666v-32h-74.666V277.334z"/>
			</g>
			<g>
				<path style="fill:#232323;" d="M240,288.001h-96v-53.333h96V288.001z M154.667,277.334h74.667v-32h-74.667V277.334z"/>
			</g>
			<g>
				<rect x="229.334" y="282.667" style="fill:#232323;" width="10.667" height="48.001"/>
			</g>
			<g>
				<rect x="272.001" y="282.667" style="fill:#232323;" width="10.666" height="48.001"/>
			</g>
			<g>
				<rect x="234.667" y="234.667" style="fill:#232323;" width="42.667" height="10.667"/>
			</g>
			<g>
				<rect x="250.667" y="240" style="fill:#232323;" width="10.667" height="90.667"/>
			</g>
			<g>
				<rect x="362.666" y="277.334" style="fill:#232323;" width="21.334" height="10.667"/>
			</g>
			<g>
				<rect x="362.666" y="234.667" style="fill:#232323;" width="21.334" height="10.667"/>
			</g>
			<g>
				<rect x="314.667" y="241.334" style="fill:#232323;" width="10.667" height="41.333"/>
			</g>
			<g>
				<rect x="186.667" y="240" style="fill:#232323;" width="10.667" height="42.667"/>
			</g>
			<g>
				<rect x="128" y="234.667" style="fill:#232323;" width="21.333" height="10.667"/>
			</g>
			<g>
				<rect x="128" y="277.334" style="fill:#232323;" width="21.333" height="10.667"/>
			</g>
			<g>
				<rect x="304.001" y="330.668" style="fill:#232323;" width="63.999" height="10.666"/>
			</g>
			<g>
				<rect x="144" y="330.668" style="fill:#232323;" width="64" height="10.666"/>
			</g>
			<g>
				<rect x="144" y="213.334" style="fill:#232323;" width="224" height="10.667"/>
			</g>
			<g>
				<rect x="373.333" y="314.667" style="fill:#232323;" width="21.333" height="10.667"/>
			</g>
			<g>
				<rect x="117.333" y="314.667" style="fill:#232323;" width="21.333" height="10.667"/>
			</g>
		</g>
	</g>
</g>
<g id="Layer_1">
</g>
</svg>
