<?xml version="1.0" encoding="iso-8859-1"?>
<!-- Generator: Adobe Illustrator 16.0.0, SVG Export Plug-In . SVG Version: 6.00 Build 0)  -->
<!DOCTYPE svg PUBLIC "-//W3C//DTD SVG 1.1//EN" "http://www.w3.org/Graphics/SVG/1.1/DTD/svg11.dtd">
<svg version="1.1" xmlns="http://www.w3.org/2000/svg" xmlns:xlink="http://www.w3.org/1999/xlink" x="0px" y="0px" width="512px"
	 height="512px" viewBox="0 0 512 512" style="enable-background:new 0 0 512 512;" xml:space="preserve">
<g id="Layer_141">
	<g>
		<g>
			<rect style="fill:#8891BF;" width="512" height="512"/>
		</g>
		<g>
			<g>
				<g>
					<g>
						<rect x="320.001" y="192" style="fill:#FFFFFF;" width="53.332" height="149.333"/>
					</g>
					<g>
						<g>
							<polygon style="fill:#FFFFFF;" points="320.001,181.334 320.001,170.667 309.334,170.667 309.334,192 330.668,192 
								330.668,181.334 							"/>
						</g>
						<g>
							<polygon style="fill:#FFFFFF;" points="341.334,181.334 341.334,170.667 330.668,170.667 330.668,192 352,192 352,181.334 
															"/>
						</g>
						<g>
							<polygon style="fill:#FFFFFF;" points="362.666,181.334 362.666,170.667 352,170.667 352,192 373.333,192 373.333,181.334 
															"/>
						</g>
						<g>
							<rect x="373.333" y="170.667" style="fill:#FFFFFF;" width="10.667" height="21.333"/>
						</g>
					</g>
				</g>
				<g>
					<g>
						<rect x="138.667" y="192" style="fill:#FFFFFF;" width="53.333" height="149.333"/>
					</g>
					<g>
						<g>
							<polygon style="fill:#FFFFFF;" points="138.667,181.334 138.667,170.667 128,170.667 128,192 149.333,192 149.333,181.334 
															"/>
						</g>
						<g>
							<polygon style="fill:#FFFFFF;" points="160,181.334 160,170.667 149.333,170.667 149.333,192 170.667,192 170.667,181.334 
															"/>
						</g>
						<g>
							<polygon style="fill:#FFFFFF;" points="181.334,181.334 181.334,170.667 170.667,170.667 170.667,192 192,192 192,181.334 
															"/>
						</g>
						<g>
							<rect x="192" y="170.667" style="fill:#FFFFFF;" width="10.667" height="21.333"/>
						</g>
					</g>
				</g>
				<g>
					<rect x="170.667" y="240" style="fill:#FFFFFF;" width="170.667" height="101.333"/>
				</g>
				<g>
					<path style="fill:#232323;" d="M272.001,341.334h-10.667v-21.333c0-2.941-2.392-5.334-5.333-5.334
						c-2.941,0-5.333,2.393-5.333,5.334v21.333H240v-21.333c0-8.823,7.177-16,16-16s16,7.177,16,16V341.334z"/>
				</g>
				<g>
					<rect x="192" y="240" style="fill:#232323;" width="10.667" height="101.333"/>
				</g>
				<g>
					<rect x="309.334" y="240" style="fill:#232323;" width="10.667" height="101.333"/>
				</g>
			</g>
			<g>
				<g>
					<path style="fill:#232323;" d="M346.666,224c-2.945,0-5.332,2.388-5.332,5.333V240H352v-10.667
						C352,226.389,349.611,224,346.666,224z"/>
				</g>
				<g>
					<path style="fill:#232323;" d="M165.334,224c-2.945,0-5.333,2.388-5.333,5.333V240h10.667v-10.667
						C170.667,226.389,168.279,224,165.334,224z"/>
				</g>
				<g>
					<path style="fill:#232323;" d="M346.666,282.667c-2.945,0-5.332,2.391-5.332,5.334v10.666H352v-10.666
						C352,285.058,349.611,282.667,346.666,282.667z"/>
				</g>
				<g>
					<path style="fill:#232323;" d="M165.334,282.667c-2.945,0-5.333,2.391-5.333,5.334v10.666h10.667v-10.666
						C170.667,285.058,168.279,282.667,165.334,282.667z"/>
				</g>
			</g>
		</g>
	</g>
</g>
<g id="Layer_1">
</g>
</svg>
