<?xml version="1.0" encoding="iso-8859-1"?>
<!-- Generator: Adobe Illustrator 16.0.0, SVG Export Plug-In . SVG Version: 6.00 Build 0)  -->
<!DOCTYPE svg PUBLIC "-//W3C//DTD SVG 1.1//EN" "http://www.w3.org/Graphics/SVG/1.1/DTD/svg11.dtd">
<svg version="1.1" xmlns="http://www.w3.org/2000/svg" xmlns:xlink="http://www.w3.org/1999/xlink" x="0px" y="0px" width="512px"
	 height="512px" viewBox="0 0 512 512" style="enable-background:new 0 0 512 512;" xml:space="preserve">
<g id="Layer_46">
	<g>
		<g>
			<rect style="fill:#FFFFFF;" width="512" height="512"/>
		</g>
		<g>
			<g>
				<polygon style="fill:#232323;" points="192,182.68 181.334,182.68 181.334,154.667 208,154.667 208,165.334 192,165.334 				"/>
			</g>
			<g>
				<rect x="272.001" y="186.667" style="fill:#11D1AC;" width="42.666" height="10.667"/>
			</g>
			<g>
				<path style="fill:#11D1AC;" d="M208,181.334h-16c-35.375,0-64,37.604-64,90.667h53.333c0-35.375,9.542-64,21.333-64"/>
			</g>
			<g>
				<g>
					<rect x="282.667" y="309.334" style="fill:#11D1AC;" width="101.333" height="42.667"/>
				</g>
				<g>
					<path style="fill:#232323;" d="M154.667,357.334c-14.705,0-26.667-11.962-26.667-26.666v-5.334h5.333
						c14.705,0,26.667-11.962,26.667-26.667h10.667c0,18.517-13.549,33.927-31.252,36.839c2.055,6.465,8.116,11.162,15.252,11.162
						V357.334z"/>
				</g>
				<g>
					<rect x="154.667" y="346.668" style="fill:#232323;" width="128" height="10.666"/>
				</g>
				<g>
					<path style="fill:#232323;" d="M176,314.667c-8.823,0-16-7.177-16-16h10.667c0,2.941,2.392,5.334,5.333,5.334V314.667z"/>
				</g>
				<g>
					<rect x="176" y="304.001" style="fill:#232323;" width="106.667" height="10.666"/>
				</g>
				<g>
					<rect x="277.334" y="288.001" style="fill:#232323;" width="10.667" height="85.333"/>
				</g>
				<g>
					<rect x="298.667" y="309.334" style="fill:#232323;" width="10.667" height="42.667"/>
				</g>
				<g>
					<rect x="320.001" y="309.334" style="fill:#232323;" width="10.667" height="42.667"/>
				</g>
				<g>
					<rect x="341.333" y="309.334" style="fill:#232323;" width="10.667" height="42.667"/>
				</g>
				<g>
					<rect x="362.666" y="309.334" style="fill:#232323;" width="10.667" height="42.667"/>
				</g>
			</g>
			<g>
				<path style="fill:#232323;" d="M277.334,218.667h-74.667V144h74.667V218.667z M213.334,208h53.333v-53.333h-53.333V208z"/>
			</g>
			<g>
				<rect x="208" y="165.334" style="fill:#232323;" width="64" height="10.667"/>
			</g>
			<g>
				<rect x="208" y="186.667" style="fill:#232323;" width="64" height="10.667"/>
			</g>
			<g>
				<polygon style="fill:#232323;" points="384,186.667 272.001,186.667 272.001,176 373.333,176 373.333,165.334 272.001,165.334 
					272.001,154.667 384,154.667 				"/>
			</g>
			<g>
				<rect x="373.333" y="144" style="fill:#232323;" width="10.667" height="16"/>
			</g>
			<g>
				<path style="fill:#232323;" d="M192,160h-10.667c0-5.882-4.785-10.667-10.667-10.667v-10.667
					C182.43,138.667,192,148.237,192,160z"/>
			</g>
			<g>
				<rect x="128" y="260.686" style="fill:#232323;" width="53.664" height="10.667"/>
			</g>
		</g>
	</g>
</g>
<g id="Layer_1">
</g>
</svg>
