<?xml version="1.0" encoding="iso-8859-1"?>
<!-- Generator: Adobe Illustrator 16.0.0, SVG Export Plug-In . SVG Version: 6.00 Build 0)  -->
<!DOCTYPE svg PUBLIC "-//W3C//DTD SVG 1.1//EN" "http://www.w3.org/Graphics/SVG/1.1/DTD/svg11.dtd">
<svg version="1.1" xmlns="http://www.w3.org/2000/svg" xmlns:xlink="http://www.w3.org/1999/xlink" x="0px" y="0px" width="512px"
	 height="512px" viewBox="0 0 512 512" style="enable-background:new 0 0 512 512;" xml:space="preserve">
<g id="Layer_35">
	<g>
		<g>
			<rect style="fill:#FFFFFF;" width="512" height="512"/>
		</g>
		<g>
			<g>
				<path style="fill:#232323;" d="M261.334,384.001h-10.667c0-7.364-8.962-12.146-23.585-19.336
					c-24.588-12.093-61.749-30.366-61.749-87.331c0-26.302,7.758-41.152,13.991-53.085c4.103-7.853,7.342-14.055,7.342-21.582
					c0-17.151-5.522-23.567-11.917-30.999c-1.482-1.721-3.013-3.501-4.491-5.439l-2.017-2.645l16.542-33.076l5.113,3.841
					c8.4,6.313,18.349,9.65,28.77,9.65c11.79,0,23.115-9.52,33.598-19.806l3.735-3.667l3.736,3.667
					C270.22,134.481,281.545,144,293.334,144c10.421,0,20.37-3.337,28.77-9.65l5.113-3.841l16.541,33.076l-2.016,2.645
					c-1.479,1.938-3.01,3.718-4.491,5.439c-6.395,7.431-11.917,13.848-11.917,30.999c0,7.527,3.24,13.729,7.343,21.582
					c6.233,11.933,13.989,26.783,13.989,53.085c0,56.965-37.159,75.238-61.747,87.331
					C270.296,371.855,261.334,376.637,261.334,384.001z M180.8,162.323c0.66,0.789,1.339,1.578,2.037,2.388
					c6.795,7.897,14.498,16.848,14.498,37.956c0,10.146-4.155,18.101-8.555,26.521C182.79,240.654,176,253.649,176,277.334
					c0,50.323,30.934,65.535,55.789,77.76c9.808,4.822,18.788,9.239,24.211,15.31c5.423-6.07,14.404-10.487,24.211-15.31
					c24.855-12.225,55.789-27.437,55.789-77.76c0-23.685-6.789-36.68-12.778-48.146c-4.4-8.42-8.556-16.375-8.556-26.521
					c0-21.108,7.702-30.059,14.498-37.956c0.698-0.81,1.376-1.599,2.036-2.388l-7.954-15.905c-9.055,5.414-19.28,8.249-29.913,8.249
					c-14.03,0-26.228-8.863-37.333-19.272c-11.105,10.409-23.303,19.272-37.333,19.272c-10.633,0-20.858-2.834-29.913-8.249
					L180.8,162.323z"/>
			</g>
			<g>
				<circle style="fill:#FBD764;" cx="256" cy="277.334" r="53.333"/>
			</g>
			<g>
				<polygon style="fill:#FFFFFF;" points="256,286.058 272.433,300.29 263.978,280.261 282.589,269.029 260.931,270.884 
					256,249.711 251.071,270.884 229.412,269.029 248.021,280.261 239.568,300.29 				"/>
			</g>
			<g>
				<polygon style="fill:#FBD764;" points="219.62,190.516 227.389,197.245 223.391,187.776 232.191,182.464 221.951,183.342 
					219.62,173.334 217.29,183.342 207.05,182.464 215.85,187.776 211.852,197.245 				"/>
			</g>
			<g>
				<polygon style="fill:#FBD764;" points="256,190.516 263.771,197.245 259.771,187.776 268.573,182.464 258.334,183.342 
					256,173.334 253.672,183.342 243.433,182.464 252.23,187.776 248.235,197.245 				"/>
			</g>
			<g>
				<polygon style="fill:#FBD764;" points="292.384,190.516 300.151,197.245 296.154,187.776 304.954,182.464 294.714,183.342 
					292.384,173.334 290.053,183.342 279.813,182.464 288.612,187.776 284.615,197.245 				"/>
			</g>
		</g>
	</g>
</g>
<g id="Layer_1">
</g>
</svg>
