<?xml version="1.0" encoding="iso-8859-1"?>
<!-- Generator: Adobe Illustrator 16.0.0, SVG Export Plug-In . SVG Version: 6.00 Build 0)  -->
<!DOCTYPE svg PUBLIC "-//W3C//DTD SVG 1.1//EN" "http://www.w3.org/Graphics/SVG/1.1/DTD/svg11.dtd">
<svg version="1.1" xmlns="http://www.w3.org/2000/svg" xmlns:xlink="http://www.w3.org/1999/xlink" x="0px" y="0px" width="512px"
	 height="512px" viewBox="0 0 512 512" style="enable-background:new 0 0 512 512;" xml:space="preserve">
<g id="Layer_165">
	<g>
		<g>
			<rect style="fill:#FFFFFF;" width="512" height="512"/>
		</g>
		<g>
			<g>
				<polyline style="fill:#FBD764;" points="373.333,202.667 154.667,234.667 154.667,277.334 373.333,309.334 				"/>
			</g>
			<g>
				<rect x="368" y="192" style="fill:#232323;" width="10.666" height="128"/>
			</g>
			<g>
				<rect x="346.666" y="202.667" style="fill:#FFFFFF;" width="10.667" height="106.667"/>
			</g>
			<g>
				<rect x="133.333" y="234.667" style="fill:#232323;" width="10.667" height="42.667"/>
			</g>
			<g>
				<path style="fill:#232323;" d="M263.912,325.379l-73.458-10.752l3.771-31.562l73.458,10.752L263.912,325.379z M202.276,305.577
					l52.344,7.66l1.239-10.371l-52.344-7.66L202.276,305.577z"/>
			</g>
		</g>
	</g>
</g>
<g id="Layer_1">
</g>
</svg>
