<?xml version="1.0" encoding="iso-8859-1"?>
<!-- Generator: Adobe Illustrator 16.0.0, SVG Export Plug-In . SVG Version: 6.00 Build 0)  -->
<!DOCTYPE svg PUBLIC "-//W3C//DTD SVG 1.1//EN" "http://www.w3.org/Graphics/SVG/1.1/DTD/svg11.dtd">
<svg version="1.1" xmlns="http://www.w3.org/2000/svg" xmlns:xlink="http://www.w3.org/1999/xlink" x="0px" y="0px" width="512px"
	 height="512px" viewBox="0 0 512 512" style="enable-background:new 0 0 512 512;" xml:space="preserve">
<g id="Layer_21">
	<g>
		<g>
			<rect style="fill:#FFFFFF;" width="512" height="512"/>
		</g>
		<g>
			<g>
				<polygon style="fill:#232323;" points="304.001,277.334 293.334,277.334 293.334,168.458 337.563,124.229 345.106,131.771 
					304.001,172.877 				"/>
			</g>
			<g>
				<g>
					<path style="fill:#232323;" d="M192.002,240.002c-12.822,0-24.876-4.994-33.943-14.062c-18.712-18.713-18.712-49.164,0-67.88
						c9.066-9.068,21.121-14.062,33.943-14.062c12.82,0,24.874,4.994,33.938,14.059c18.716,18.716,18.716,49.169,0,67.886
						C216.875,235.008,204.822,240.002,192.002,240.002z M192.002,154.666c-9.973,0-19.348,3.884-26.398,10.937
						c-14.556,14.557-14.556,38.242-0.001,52.797c7.052,7.052,16.427,10.937,26.4,10.937c9.971,0,19.346-3.883,26.397-10.934
						c14.558-14.557,14.558-38.245,0-52.802C211.348,158.549,201.973,154.666,192.002,154.666z"/>
				</g>
				<g>
					<g>
						<g>
							
								<rect x="149.334" y="186.669" transform="matrix(0.7071 0.7071 -0.7071 0.7071 192.0081 -79.5288)" style="fill:#232323;" width="85.333" height="10.665"/>
						</g>
					</g>
					<g>
						<g>
							
								<rect x="186.668" y="149.335" transform="matrix(0.9659 0.2588 -0.2588 0.9659 56.2312 -43.1483)" style="fill:#232323;" width="10.666" height="85.333"/>
						</g>
					</g>
					<g>
						<g>
							
								<rect x="186.668" y="149.335" transform="matrix(0.2588 0.9659 -0.9659 0.2588 327.7685 -43.1491)" style="fill:#232323;" width="10.665" height="85.334"/>
						</g>
					</g>
					<g>
						<g>
							
								<rect x="149.334" y="186.669" transform="matrix(0.7071 0.7071 -0.7071 0.7071 192.0081 -79.5288)" style="fill:#232323;" width="85.333" height="10.665"/>
						</g>
					</g>
				</g>
			</g>
			<g>
				<polygon style="fill:#11D1AC;" points="320.001,192 192,192 202.667,384.001 309.334,384.001 				"/>
			</g>
			<g>
				<rect x="195.558" y="250.667" style="fill:#232323;" width="120.813" height="10.667"/>
			</g>
		</g>
	</g>
</g>
<g id="Layer_1">
</g>
</svg>
