<?xml version="1.0" encoding="iso-8859-1"?>
<!-- Generator: Adobe Illustrator 16.0.0, SVG Export Plug-In . SVG Version: 6.00 Build 0)  -->
<!DOCTYPE svg PUBLIC "-//W3C//DTD SVG 1.1//EN" "http://www.w3.org/Graphics/SVG/1.1/DTD/svg11.dtd">
<svg version="1.1" xmlns="http://www.w3.org/2000/svg" xmlns:xlink="http://www.w3.org/1999/xlink" x="0px" y="0px" width="512px"
	 height="512px" viewBox="0 0 512 512" style="enable-background:new 0 0 512 512;" xml:space="preserve">
<g id="Layer_93">
	<g>
		<g>
			<rect style="fill:#FFFFFF;" width="512" height="512"/>
		</g>
		<g>
			<g>
				<g>
					<rect x="170.667" y="256" style="fill:#FBD764;" width="170.667" height="42.667"/>
				</g>
				<g>
					<path style="fill:#FBD764;" d="M170.667,213.334C170.667,166.206,208.873,128,256,128c47.13,0,85.333,38.206,85.333,85.333"/>
				</g>
				<g>
					<path style="fill:#232323;" d="M352,245.318c-7.279,0-14.147-2.309-19.343-6.5c-3.261-2.627-7.874-4.135-12.656-4.135
						c-4.779,0-9.391,1.508-12.654,4.137c-5.199,4.191-12.07,6.499-19.346,6.499c-7.272,0-14.143-2.307-19.342-6.499
						c-3.266-2.628-7.88-4.137-12.659-4.137c-4.832,0-9.329,1.473-12.664,4.146c-5.212,4.184-12.079,6.49-19.336,6.49
						c-7.249,0-14.116-2.305-19.336-6.49c-3.331-2.674-7.83-4.146-12.669-4.146c-4.828,0-9.327,1.473-12.667,4.147
						c-5.209,4.182-12.074,6.488-19.323,6.488v-10.667c4.829,0,9.323-1.472,12.651-4.144c5.229-4.188,12.096-6.492,19.338-6.492
						c7.259,0,14.129,2.306,19.344,6.492c3.332,2.671,7.83,4.144,12.662,4.144c4.836,0,9.333-1.472,12.662-4.144
						c5.223-4.188,12.09-6.492,19.338-6.492c7.272,0,14.145,2.307,19.349,6.496c3.266,2.632,7.875,4.14,12.651,4.14
						c4.778,0,9.391-1.508,12.653-4.137c5.199-4.192,12.07-6.499,19.347-6.499c7.278,0,14.152,2.307,19.352,6.499
						c3.259,2.63,7.868,4.137,12.647,4.137V245.318z"/>
				</g>
				<g>
					<path style="fill:#232323;" d="M352,330.652c-7.281,0-14.152-2.309-19.344-6.502c-3.26-2.626-7.873-4.134-12.655-4.134
						c-4.779,0-9.391,1.508-12.654,4.137c-5.195,4.19-12.066,6.499-19.346,6.499c-7.276,0-14.146-2.309-19.343-6.5
						c-3.265-2.627-7.879-4.136-12.658-4.136c-4.832,0-9.329,1.473-12.664,4.146c-5.207,4.184-12.075,6.49-19.336,6.49
						c-7.254,0-14.121-2.305-19.337-6.491c-3.329-2.673-7.828-4.145-12.668-4.145c-4.828,0-9.327,1.473-12.667,4.147
						c-5.205,4.182-12.069,6.488-19.323,6.488v-10.667c4.832,0,9.324-1.472,12.649-4.142c5.23-4.189,12.098-6.494,19.34-6.494
						c7.259,0,14.129,2.306,19.344,6.492c3.33,2.672,7.827,4.144,12.662,4.144c4.839,0,9.335-1.472,12.66-4.142
						c5.224-4.189,12.091-6.494,19.34-6.494c7.272,0,14.145,2.308,19.349,6.496c3.263,2.632,7.872,4.14,12.651,4.14
						c4.781,0,9.393-1.508,12.652-4.136c5.2-4.192,12.071-6.5,19.348-6.5c7.278,0,14.152,2.308,19.352,6.499
						c3.257,2.63,7.866,4.137,12.647,4.137V330.652z"/>
				</g>
				<g>
					<path style="fill:#FBD764;" d="M170.667,341.334v21.334c0,11.791,9.542,21.333,21.333,21.333h128
						c11.792,0,21.333-9.542,21.333-21.333v-21.334H170.667z"/>
				</g>
			</g>
			<g>
				<rect x="160" y="272.001" style="fill:#232323;" width="192" height="10.666"/>
			</g>
		</g>
	</g>
</g>
<g id="Layer_1">
</g>
</svg>
