<?xml version="1.0" encoding="iso-8859-1"?>
<!-- Generator: Adobe Illustrator 16.0.0, SVG Export Plug-In . SVG Version: 6.00 Build 0)  -->
<!DOCTYPE svg PUBLIC "-//W3C//DTD SVG 1.1//EN" "http://www.w3.org/Graphics/SVG/1.1/DTD/svg11.dtd">
<svg version="1.1" xmlns="http://www.w3.org/2000/svg" xmlns:xlink="http://www.w3.org/1999/xlink" x="0px" y="0px" width="512px"
	 height="512px" viewBox="0 0 512 512" style="enable-background:new 0 0 512 512;" xml:space="preserve">
<g id="Layer_97">
	<g>
		<g>
			<rect style="fill:#FFFFFF;" width="512" height="512"/>
		</g>
		<g>
			<g>
				<polygon style="fill:#8891BF;" points="341.334,245.334 352,256 352,373.334 341.334,384.001 277.334,384.001 266.667,373.334 
					266.667,256 277.334,245.334 				"/>
			</g>
			<g>
				<rect x="266.667" y="256" style="fill:#232323;" width="85.333" height="10.667"/>
			</g>
			<g>
				<rect x="266.667" y="362.668" style="fill:#232323;" width="85.333" height="10.666"/>
			</g>
			<g>
				<path style="fill:#FFFFFF;" d="M334.668,352.001h-10.667c0-7.124-3.43-10.554-7.771-14.896
					c-4.854-4.854-10.896-10.895-10.896-22.438c0-11.543,6.042-17.583,10.896-22.438c4.341-4.342,7.771-7.771,7.771-14.896h10.667
					c0,11.543-6.042,17.583-10.896,22.438c-4.341,4.343-7.771,7.772-7.771,14.896c0,7.124,3.43,10.554,7.771,14.896
					C328.626,334.418,334.668,340.458,334.668,352.001z"/>
			</g>
			<g>
				<g>
					<rect x="186.667" y="128" style="fill:#8891BF;" width="42.667" height="10.667"/>
				</g>
			</g>
			<g>
				<g>
					<path style="fill:none;" d="M181.334,314.667c0,10.826-1.339,18.526-2.633,25.975c-1.328,7.638-2.701,15.539-2.701,27.359
						c0,2.94,2.391,5.333,5.333,5.333h53.333c2.942,0,5.333-2.393,5.333-5.333c0-13.594-1.424-21.388-2.802-28.93
						c-1.302-7.12-2.531-13.849-2.531-24.404c0-5.346,0.333-10.692,0.82-16h-54.974C181,303.975,181.334,309.321,181.334,314.667z"
						/>
				</g>
				<g>
					<path style="fill:#232323;" d="M238.032,199.271C231.136,182.792,224,165.75,224,138.667h-10.667
						c0,29.224,7.896,48.083,14.859,64.724c4.232,10.107,8.252,19.859,10.328,31.276h10.885
						C247.287,221.422,242.761,210.568,238.032,199.271z"/>
				</g>
				<g>
					<path style="fill:#232323;" d="M187.808,203.391c6.964-16.641,14.859-35.5,14.859-64.724H192
						c0,27.083-7.135,44.125-14.031,60.604c-4.729,11.297-9.255,22.151-11.375,35.396h10.885
						C179.555,223.25,183.576,213.498,187.808,203.391z"/>
				</g>
				<g>
					<path style="fill:#232323;" d="M235.488,298.667c-0.487,5.308-0.82,10.654-0.82,16c0,10.556,1.229,17.284,2.531,24.404
						c1.377,7.542,2.802,15.336,2.802,28.93c0,2.94-2.391,5.333-5.333,5.333h-53.333c-2.943,0-5.333-2.393-5.333-5.333
						c0-11.82,1.373-19.722,2.701-27.359c1.294-7.448,2.633-15.148,2.633-25.975c0-5.346-0.333-10.692-0.82-16h-10.711
						c0.513,5.362,0.864,10.727,0.864,16c0,9.907-1.203,16.823-2.474,24.146c-1.406,8.086-2.859,16.448-2.859,29.188
						c0,8.823,7.177,16,16,16h53.333c8.823,0,16-7.177,16-16c0-14.56-1.581-23.211-2.977-30.847
						c-1.211-6.633-2.357-12.898-2.357-22.487c0-5.273,0.352-10.638,0.865-16H235.488z"/>
				</g>
				<g>
					<path style="fill:#8891BF;" d="M249.407,234.667h-10.885h-61.042h-10.885c-0.794,4.953-1.26,10.227-1.26,16
						c0,11,1.375,22.01,2.708,32.662c0.63,5.055,1.271,10.195,1.761,15.338h10.711h54.974h10.711
						c0.489-5.143,1.13-10.283,1.76-15.338c1.333-10.651,2.708-21.662,2.708-32.662
						C250.667,244.894,250.201,239.621,249.407,234.667z"/>
				</g>
			</g>
			<g>
				<path style="fill:#FFFFFF;" d="M235.334,288.001h-10.667c0-2.998-1.156-4.28-3.771-6.896c-2.91-2.91-6.896-6.895-6.896-14.438
					s3.986-11.527,6.896-14.437c2.614-2.616,3.771-3.898,3.771-6.896h10.667c0,7.543-3.986,11.527-6.896,14.438
					c-2.615,2.616-3.771,3.898-3.771,6.896c0,2.998,1.156,4.28,3.771,6.896C231.348,276.474,235.334,280.458,235.334,288.001z"/>
			</g>
		</g>
	</g>
</g>
<g id="Layer_1">
</g>
</svg>
