<?xml version="1.0" encoding="iso-8859-1"?>
<!-- Generator: Adobe Illustrator 16.0.0, SVG Export Plug-In . SVG Version: 6.00 Build 0)  -->
<!DOCTYPE svg PUBLIC "-//W3C//DTD SVG 1.1//EN" "http://www.w3.org/Graphics/SVG/1.1/DTD/svg11.dtd">
<svg version="1.1" xmlns="http://www.w3.org/2000/svg" xmlns:xlink="http://www.w3.org/1999/xlink" x="0px" y="0px" width="512px"
	 height="512px" viewBox="0 0 512 512" style="enable-background:new 0 0 512 512;" xml:space="preserve">
<g id="Layer_31">
	<g>
		<g>
			<rect style="fill:#8891BF;" width="512" height="512"/>
		</g>
		<g>
			<g>
				<rect x="144" y="250.667" style="fill:#232323;" width="10.667" height="106.667"/>
			</g>
			<g>
				<rect x="165.334" y="250.667" style="fill:#232323;" width="10.667" height="106.667"/>
			</g>
			<g>
				<rect x="208" y="250.667" style="fill:#232323;" width="10.667" height="106.667"/>
			</g>
			<g>
				<rect x="229.334" y="250.667" style="fill:#232323;" width="10.667" height="106.667"/>
			</g>
			<g>
				<rect x="272.001" y="250.667" style="fill:#232323;" width="10.666" height="106.667"/>
			</g>
			<g>
				<rect x="293.334" y="250.667" style="fill:#232323;" width="10.667" height="106.667"/>
			</g>
			<g>
				<rect x="336.001" y="250.667" style="fill:#232323;" width="10.665" height="106.667"/>
			</g>
			<g>
				<rect x="357.333" y="250.667" style="fill:#232323;" width="10.667" height="106.667"/>
			</g>
			<g>
				<polyline style="fill:#FFFFFF;" points="128,234.667 256,128 384,234.667 				"/>
			</g>
			<g>
				<path style="fill:#232323;" d="M256,218.667c-14.704,0-26.667-11.962-26.667-26.667s11.962-26.667,26.667-26.667
					c14.705,0,26.667,11.962,26.667,26.667S270.705,218.667,256,218.667z M256,176c-8.823,0-16,7.177-16,16s7.177,16,16,16
					s16-7.177,16-16S264.823,176,256,176z"/>
			</g>
			<g>
				<rect x="128" y="373.334" style="fill:#FFFFFF;" width="256" height="10.667"/>
			</g>
			<g>
				<rect x="128" y="352.001" style="fill:#FFFFFF;" width="256" height="10.667"/>
			</g>
			<g>
				<rect x="128" y="245.334" style="fill:#FFFFFF;" width="256" height="10.667"/>
			</g>
		</g>
	</g>
</g>
<g id="Layer_1">
</g>
</svg>
