<?xml version="1.0" encoding="iso-8859-1"?>
<!-- Generator: Adobe Illustrator 16.0.0, SVG Export Plug-In . SVG Version: 6.00 Build 0)  -->
<!DOCTYPE svg PUBLIC "-//W3C//DTD SVG 1.1//EN" "http://www.w3.org/Graphics/SVG/1.1/DTD/svg11.dtd">
<svg version="1.1" xmlns="http://www.w3.org/2000/svg" xmlns:xlink="http://www.w3.org/1999/xlink" x="0px" y="0px" width="512px"
	 height="512px" viewBox="0 0 512 512" style="enable-background:new 0 0 512 512;" xml:space="preserve">
<g id="Layer_132">
	<g>
		<g>
			<rect style="fill:#FFFFFF;" width="512" height="512"/>
		</g>
		<g>
			<g>
				<path style="fill:#8891BF;" d="M170.667,213.334c-23.563,0-42.667-19.104-42.667-42.667S147.104,128,170.667,128"/>
			</g>
			<g>
				<rect x="128" y="170.667" style="fill:#8891BF;" width="42.667" height="85.333"/>
			</g>
			<g>
				<polygon style="fill:#232323;" points="170.667,128 170.667,160 170.667,192 298.667,192 298.667,160 298.667,128 				"/>
			</g>
			<g>
				<rect x="298.667" y="138.667" style="fill:#8891BF;" width="21.334" height="42.667"/>
			</g>
			<g>
				<rect x="320.001" y="154.667" style="fill:#232323;" width="63.999" height="10.667"/>
			</g>
			<g>
				<polygon style="fill:#232323;" points="224,213.334 170.667,213.334 170.667,186.667 181.334,186.667 181.334,202.667 
					213.334,202.667 213.334,186.667 224,186.667 				"/>
			</g>
			<g>
				<rect x="192" y="192" style="fill:#8891BF;" width="10.667" height="5.333"/>
			</g>
			<g>
				<g>
					<g>
						<rect x="357.333" y="277.334" style="fill:#232323;" width="10.667" height="85.334"/>
					</g>
				</g>
				<g>
					<g>
						<rect x="314.667" y="277.334" style="fill:#232323;" width="10.667" height="85.334"/>
					</g>
				</g>
				<g>
					<g>
						<rect x="272.001" y="277.334" style="fill:#232323;" width="10.666" height="85.334"/>
					</g>
				</g>
				<g>
					<g>
						<rect x="229.334" y="277.334" style="fill:#232323;" width="10.667" height="85.334"/>
					</g>
				</g>
				<g>
					<g>
						<rect x="186.667" y="277.334" style="fill:#232323;" width="10.667" height="85.334"/>
					</g>
				</g>
				<g>
					<g>
						<rect x="144" y="277.334" style="fill:#232323;" width="10.667" height="85.334"/>
					</g>
				</g>
			</g>
			<g>
				<path style="fill:#232323;" d="M170.667,389.334c-14.705,0-26.667-11.962-26.667-26.666h10.667c0,8.822,7.177,16,16,16
					c8.823,0,16-7.178,16-16h10.667C197.334,377.372,185.372,389.334,170.667,389.334z"/>
			</g>
			<g>
				<path style="fill:#232323;" d="M240,277.334h-10.667c0-8.823-7.177-16-16-16c-8.823,0-16,7.177-16,16h-10.667
					c0-14.704,11.962-26.667,26.667-26.667S240,262.63,240,277.334z"/>
			</g>
			<g>
				<path style="fill:#232323;" d="M256,389.334c-14.704,0-26.667-11.962-26.667-26.666H240c0,8.822,7.177,16,16,16s16-7.178,16-16
					h10.666C282.667,377.372,270.705,389.334,256,389.334z"/>
			</g>
			<g>
				<path style="fill:#232323;" d="M325.334,277.334h-10.667c0-8.823-7.177-16-16-16c-8.822,0-16,7.177-16,16h-10.666
					c0-14.704,11.962-26.667,26.666-26.667C313.372,250.667,325.334,262.63,325.334,277.334z"/>
			</g>
			<g>
				<path style="fill:#232323;" d="M341.334,389.334c-14.704,0-26.667-11.962-26.667-26.666h10.667c0,8.822,7.178,16,16,16
					s15.999-7.178,15.999-16H368C368,377.372,356.039,389.334,341.334,389.334z"/>
			</g>
			<g>
				<path style="fill:#232323;" d="M368,277.334h-10.667c0-14.704,11.964-26.667,26.667-26.667v10.667
					C375.177,261.334,368,268.511,368,277.334z"/>
			</g>
			<g>
				<rect x="144" y="256" style="fill:#232323;" width="10.667" height="21.333"/>
			</g>
			<g>
				<circle style="fill:#8891BF;" cx="197.334" cy="160" r="16"/>
			</g>
			<g>
				<rect x="181.334" y="154.667" style="fill:#232323;" width="32" height="10.667"/>
			</g>
		</g>
	</g>
</g>
<g id="Layer_1">
</g>
</svg>
