<?xml version="1.0" encoding="iso-8859-1"?>
<!-- Generator: Adobe Illustrator 16.0.0, SVG Export Plug-In . SVG Version: 6.00 Build 0)  -->
<!DOCTYPE svg PUBLIC "-//W3C//DTD SVG 1.1//EN" "http://www.w3.org/Graphics/SVG/1.1/DTD/svg11.dtd">
<svg version="1.1" xmlns="http://www.w3.org/2000/svg" xmlns:xlink="http://www.w3.org/1999/xlink" x="0px" y="0px" width="512px"
	 height="512px" viewBox="0 0 512 512" style="enable-background:new 0 0 512 512;" xml:space="preserve">
<g id="Layer_106">
	<g>
		<g>
			<rect style="fill:#FFFFFF;" width="512" height="512"/>
		</g>
		<g>
			<g>
				<path style="fill:#232323;" d="M256,160c52.934,0,96,43.065,96,96s-43.065,96-96,96c-52.935,0-96-43.065-96-96
					S203.065,160,256,160 M256,149.333c-58.912,0-106.667,47.755-106.667,106.667S197.089,362.668,256,362.668
					S362.666,314.912,362.666,256S314.912,149.333,256,149.333L256,149.333z"/>
			</g>
			<g>
				<g>
					<path style="fill:#FBD764;" d="M257.334,234.667c3.474,0,6.745,0.849,9.644,2.323l47.682-82.591
						c-17.26-9.987-37.283-15.732-58.659-15.732v96.068C256.443,234.709,256.883,234.667,257.334,234.667z"/>
				</g>
				<g>
					<path style="fill:#FBD764;" d="M278.667,256c0,4.125-1.189,7.963-3.219,11.229l82.153,47.43
						c9.986-17.26,15.731-37.283,15.731-58.659H278.667z"/>
				</g>
				<g>
					<path style="fill:#FBD764;" d="M266.978,275.011l47.682,82.592c17.806-10.302,32.64-25.138,42.942-42.943l-82.153-47.43
						C273.394,270.537,270.467,273.237,266.978,275.011z"/>
				</g>
				<g>
					<path style="fill:#FBD764;" d="M238.535,266.084l-84.136,48.575c10.302,17.806,25.138,32.642,42.943,42.943l48.346-83.74
						C242.704,271.909,240.23,269.24,238.535,266.084z"/>
				</g>
				<g>
					<path style="fill:#FBD764;" d="M256,234.735v-96.068c-21.375,0-41.398,5.745-58.659,15.732l48.346,83.742
						C248.688,236.18,252.209,234.969,256,234.735z"/>
				</g>
				<g>
					<path style="fill:#FBD764;" d="M236,256h-97.333c0,21.375,5.745,41.399,15.732,58.659l84.136-48.575
						C236.92,263.081,236,259.649,236,256z"/>
				</g>
				<g>
					<path style="fill:#FBD764;" d="M275.448,244.771c-2.055-3.307-4.981-6.01-8.471-7.781L256,256L275.448,244.771z"/>
				</g>
				<g>
					<path style="fill:#FBD764;" d="M256,256h22.667c0-4.125-1.189-7.963-3.219-11.229L256,256z"/>
				</g>
				<g>
					<path style="fill:#FBD764;" d="M245.688,273.862c3,1.959,6.521,3.17,10.313,3.404V256L245.688,273.862z"/>
				</g>
				<g>
					<path style="fill:#FBD764;" d="M266.978,236.99c-2.898-1.474-6.17-2.323-9.644-2.323c-0.451,0-0.891,0.042-1.333,0.067V256
						L266.978,236.99z"/>
				</g>
				<g>
					<path style="fill:#FBD764;" d="M275.448,267.229c2.029-3.266,3.219-7.104,3.219-11.229H256L275.448,267.229z"/>
				</g>
				<g>
					<path style="fill:#FBD764;" d="M266.978,275.011c3.489-1.773,6.416-4.474,8.471-7.781L256,256L266.978,275.011z"/>
				</g>
				<g>
					<path style="fill:#FBD764;" d="M238.535,266.084c1.695,3.156,4.169,5.825,7.153,7.778L256,256L238.535,266.084z"/>
				</g>
				<g>
					<path style="fill:#FBD764;" d="M256,277.267c0.443,0.028,0.883,0.067,1.333,0.067c3.474,0,6.745-0.849,9.644-2.323L256,256
						V277.267z"/>
				</g>
				<g>
					<path style="fill:#FBD764;" d="M256,256v-21.266c-3.792,0.234-7.313,1.445-10.313,3.406L256,256L256,256z"/>
				</g>
				<g>
					<path style="fill:#FBD764;" d="M245.688,238.141c-2.984,1.948-5.458,4.62-7.153,7.776L256,256L245.688,238.141z"/>
				</g>
				<g>
					<path style="fill:#FBD764;" d="M236,256c0,3.649,0.919,7.081,2.534,10.083L256,256H236z"/>
				</g>
				<g>
					<path style="fill:#FBD764;" d="M256,256l-17.466-10.083C236.92,248.92,236,252.352,236,256H256L256,256z"/>
				</g>
			</g>
			<g>
				<path style="fill:#232323;" d="M256,282.667c-14.704,0-26.667-11.962-26.667-26.667c0-14.704,11.962-26.667,26.667-26.667
					c14.705,0,26.667,11.962,26.667,26.667C282.667,270.705,270.705,282.667,256,282.667z M256,240c-8.823,0-16,7.177-16,16
					s7.177,16,16,16s16-7.178,16-16S264.823,240,256,240z"/>
			</g>
		</g>
	</g>
</g>
<g id="Layer_1">
</g>
</svg>
