<?xml version="1.0" encoding="iso-8859-1"?>
<!-- Generator: Adobe Illustrator 16.0.0, SVG Export Plug-In . SVG Version: 6.00 Build 0)  -->
<!DOCTYPE svg PUBLIC "-//W3C//DTD SVG 1.1//EN" "http://www.w3.org/Graphics/SVG/1.1/DTD/svg11.dtd">
<svg version="1.1" xmlns="http://www.w3.org/2000/svg" xmlns:xlink="http://www.w3.org/1999/xlink" x="0px" y="0px" width="512px"
	 height="512px" viewBox="0 0 512 512" style="enable-background:new 0 0 512 512;" xml:space="preserve">
<g id="Layer_176">
	<g>
		<g>
			<rect style="fill:#8891BF;" width="512" height="512"/>
		</g>
		<g>
			<g>
				<polygon style="fill:#232323;" points="142.716,289.03 132.304,286.717 155.722,181.334 186.667,181.334 186.667,288.001 
					176,288.001 176,192 164.279,192 				"/>
			</g>
			<g>
				<rect x="138.667" y="202.667" style="fill:#232323;" width="42.667" height="10.667"/>
			</g>
			<g>
				<rect x="384" y="186.667" style="fill:#FFFFFF;" width="10.666" height="42.667"/>
			</g>
			<g>
				<polygon style="fill:#232323;" points="357.333,272.001 346.666,272.001 346.666,205.791 371.125,181.334 394.666,181.334 
					394.666,192 375.541,192 357.333,210.21 				"/>
			</g>
			<g>
				<g>
					<path style="fill:#232323;" d="M336.001,298.667H197.334v-96h138.667V298.667z M208,288.001h117.333v-74.667H208V288.001z"/>
				</g>
				<g>
					<rect x="240" y="208" style="fill:#232323;" width="10.667" height="85.333"/>
				</g>
				<g>
					<rect x="282.667" y="208" style="fill:#232323;" width="10.667" height="85.333"/>
				</g>
				<g>
					<rect x="202.667" y="245.334" style="fill:#232323;" width="128.001" height="10.667"/>
				</g>
			</g>
			<g>
				<g>
					<polygon style="fill:#FFFFFF;" points="309.334,266.667 298.667,277.334 117.333,277.334 117.333,330.668 330.668,330.668 
						394.666,266.667 					"/>
				</g>
			</g>
			<g>
				<rect x="117.333" y="309.334" style="fill:#8891BF;" width="234.667" height="10.667"/>
			</g>
		</g>
	</g>
</g>
<g id="Layer_1">
</g>
</svg>
