<?xml version="1.0" encoding="iso-8859-1"?>
<!-- Generator: Adobe Illustrator 16.0.0, SVG Export Plug-In . SVG Version: 6.00 Build 0)  -->
<!DOCTYPE svg PUBLIC "-//W3C//DTD SVG 1.1//EN" "http://www.w3.org/Graphics/SVG/1.1/DTD/svg11.dtd">
<svg version="1.1" xmlns="http://www.w3.org/2000/svg" xmlns:xlink="http://www.w3.org/1999/xlink" x="0px" y="0px" width="512px"
	 height="512px" viewBox="0 0 512 512" style="enable-background:new 0 0 512 512;" xml:space="preserve">
<g id="Layer_63">
	<g>
		<g>
			<rect style="fill:#FBD764;" width="512" height="512"/>
		</g>
		<g>
			<g>
				<defs>
					<rect id="SVGID_1_" x="170.667" y="346.668" width="170.667" height="32"/>
				</defs>
				<clipPath id="SVGID_2_">
					<use xlink:href="#SVGID_1_"  style="overflow:visible;"/>
				</clipPath>
				<g style="clip-path:url(#SVGID_2_);">
					<g>
						<g>
							
								<rect x="330.558" y="340.307" transform="matrix(0.7071 0.7072 -0.7072 0.7071 354.9351 -131.254)" style="fill:#FFFFFF;" width="10.665" height="44.942"/>
						</g>
					</g>
					<g>
						<g>
							
								<rect x="298.557" y="340.307" transform="matrix(0.7071 0.7071 -0.7071 0.7071 345.5304 -108.6274)" style="fill:#FFFFFF;" width="10.666" height="44.942"/>
						</g>
					</g>
					<g>
						<g>
							
								<rect x="266.557" y="340.307" transform="matrix(0.7071 0.7071 -0.7071 0.7071 336.1723 -85.998)" style="fill:#FFFFFF;" width="10.666" height="44.942"/>
						</g>
					</g>
					<g>
						<g>
							
								<rect x="234.557" y="340.307" transform="matrix(0.7071 0.7071 -0.7071 0.7071 326.7852 -63.3724)" style="fill:#FFFFFF;" width="10.666" height="44.942"/>
						</g>
					</g>
					<g>
						<g>
							
								<rect x="202.557" y="340.307" transform="matrix(0.7071 0.7071 -0.7071 0.7071 317.4125 -40.7451)" style="fill:#FFFFFF;" width="10.666" height="44.942"/>
						</g>
					</g>
					<g>
						<g>
							
								<rect x="170.557" y="340.307" transform="matrix(0.7071 0.7071 -0.7071 0.7071 308.04 -18.1176)" style="fill:#FFFFFF;" width="10.666" height="44.942"/>
						</g>
					</g>
				</g>
			</g>
			<g>
				<defs>
					<rect id="SVGID_3_" x="170.667" y="218.667" width="170.667" height="32"/>
				</defs>
				<clipPath id="SVGID_4_">
					<use xlink:href="#SVGID_3_"  style="overflow:visible;"/>
				</clipPath>
				<g style="clip-path:url(#SVGID_4_);">
					<g>
						<g>
							
								<rect x="330.558" y="212.307" transform="matrix(0.7071 0.7071 -0.7071 0.7071 264.4061 -168.748)" style="fill:#FFFFFF;" width="10.665" height="44.942"/>
						</g>
					</g>
					<g>
						<g>
							
								<rect x="298.557" y="212.307" transform="matrix(0.7071 0.7071 -0.7071 0.7071 255.008 -146.1164)" style="fill:#FFFFFF;" width="10.666" height="44.942"/>
						</g>
					</g>
					<g>
						<g>
							
								<rect x="266.557" y="212.307" transform="matrix(0.7071 0.7071 -0.7071 0.7071 245.6478 -123.4905)" style="fill:#FFFFFF;" width="10.665" height="44.942"/>
						</g>
					</g>
					<g>
						<g>
							
								<rect x="234.557" y="212.307" transform="matrix(0.7071 0.7071 -0.7071 0.7071 236.2643 -100.8628)" style="fill:#FFFFFF;" width="10.666" height="44.942"/>
						</g>
					</g>
					<g>
						<g>
							
								<rect x="202.557" y="212.307" transform="matrix(0.7071 0.7071 -0.7071 0.7071 226.8924 -78.2361)" style="fill:#FFFFFF;" width="10.666" height="44.942"/>
						</g>
					</g>
					<g>
						<g>
							
								<rect x="170.557" y="212.307" transform="matrix(0.7071 0.7071 -0.7071 0.7071 217.5206 -55.6095)" style="fill:#FFFFFF;" width="10.666" height="44.942"/>
						</g>
					</g>
				</g>
			</g>
			<g>
				<path style="fill:#232323;" d="M346.666,384.001H165.334V213.334h181.332V384.001z M176,373.334h160V224H176V373.334z"/>
			</g>
			<g>
				
					<rect x="132.04" y="197.334" transform="matrix(0.7071 0.7071 -0.7071 0.7071 188.6064 -50.0066)" style="fill:#232323;" width="45.255" height="10.666"/>
			</g>
			<g>
				
					<rect x="352.001" y="180.04" transform="matrix(0.7072 0.707 -0.707 0.7072 247.9298 -193.3032)" style="fill:#232323;" width="10.666" height="45.254"/>
			</g>
			<g>
				<polygon style="fill:#232323;" points="346.666,218.667 336.001,218.667 336.001,181.334 176,181.334 176,218.667 
					165.334,218.667 165.334,170.667 346.666,170.667 				"/>
			</g>
			<g>
				<rect x="170.667" y="341.334" style="fill:#232323;" width="170.667" height="10.667"/>
			</g>
			<g>
				<rect x="170.667" y="245.334" style="fill:#232323;" width="170.667" height="10.667"/>
			</g>
			<g>
				<path style="fill:#232323;" d="M325.334,325.334H186.667v-53.333h138.667V325.334z M197.334,314.667h117.333v-32H197.334
					V314.667z"/>
			</g>
		</g>
	</g>
</g>
<g id="Layer_1">
</g>
</svg>
