<?xml version="1.0" encoding="iso-8859-1"?>
<!-- Generator: Adobe Illustrator 16.0.0, SVG Export Plug-In . SVG Version: 6.00 Build 0)  -->
<!DOCTYPE svg PUBLIC "-//W3C//DTD SVG 1.1//EN" "http://www.w3.org/Graphics/SVG/1.1/DTD/svg11.dtd">
<svg version="1.1" xmlns="http://www.w3.org/2000/svg" xmlns:xlink="http://www.w3.org/1999/xlink" x="0px" y="0px" width="512px"
	 height="512px" viewBox="0 0 512 512" style="enable-background:new 0 0 512 512;" xml:space="preserve">
<g id="Layer_162">
	<g>
		<g>
			<rect style="fill:#FFFFFF;" width="512" height="512"/>
		</g>
		<g>
			<g>
				<path style="fill:#8891BF;" d="M176,362.668h-32V192c0-35.375,28.625-64,64-64h96C339.376,128,368,156.625,368,192v170.667
					h-31.999v21.333H176V362.668z"/>
			</g>
			<g>
				<path style="fill:#FFFFFF;" d="M256,165.334c-20.586,0-37.333-16.748-37.333-37.333h10.667
					c0,14.704,11.962,26.667,26.667,26.667c14.705,0,26.667-11.962,26.667-26.667h10.667
					C293.334,148.586,276.587,165.334,256,165.334z"/>
			</g>
			<g>
				<path style="fill:#FFFFFF;" d="M316.334,248c-7.124,0-13.82-2.774-18.855-7.813c-3.021-3.022-7.038-4.687-11.312-4.687
					s-8.29,1.664-11.311,4.687C269.821,245.226,263.124,248,256,248s-13.82-2.774-18.855-7.813
					c-3.021-3.022-7.038-4.687-11.311-4.687s-8.291,1.664-11.312,4.687c-5.035,5.039-11.731,7.813-18.855,7.813
					c-7.124,0-13.82-2.774-18.855-7.813l7.544-7.539c3.021,3.022,7.038,4.686,11.311,4.686s8.291-1.664,11.312-4.686
					c5.035-5.04,11.731-7.814,18.855-7.814c7.124,0,13.82,2.774,18.855,7.814c3.021,3.022,7.038,4.686,11.311,4.686
					c4.274,0,8.291-1.664,11.311-4.686c5.035-5.04,11.732-7.814,18.855-7.814c7.124,0,13.82,2.774,18.855,7.814
					c3.021,3.022,7.038,4.686,11.312,4.686s8.291-1.664,11.312-4.686l7.544,7.539C330.154,245.226,323.458,248,316.334,248z"/>
			</g>
			<g>
				<rect x="325.334" y="192" style="fill:#232323;" width="10.667" height="170.667"/>
			</g>
			<g>
				<rect x="176" y="192" style="fill:#232323;" width="10.667" height="170.667"/>
			</g>
		</g>
	</g>
</g>
<g id="Layer_1">
</g>
</svg>
