<?xml version="1.0" encoding="iso-8859-1"?>
<!-- Generator: Adobe Illustrator 16.0.0, SVG Export Plug-In . SVG Version: 6.00 Build 0)  -->
<!DOCTYPE svg PUBLIC "-//W3C//DTD SVG 1.1//EN" "http://www.w3.org/Graphics/SVG/1.1/DTD/svg11.dtd">
<svg version="1.1" xmlns="http://www.w3.org/2000/svg" xmlns:xlink="http://www.w3.org/1999/xlink" x="0px" y="0px" width="512px"
	 height="512px" viewBox="0 0 512 512" style="enable-background:new 0 0 512 512;" xml:space="preserve">
<g id="Layer_66">
	<g>
		<g>
			<rect style="fill:#FFFFFF;" width="512" height="512"/>
		</g>
		<g>
			<g>
				<polygon style="fill:#FFFFFF;" points="298.667,133.333 213.334,133.333 213.334,256 256,298.667 298.667,256 				"/>
				<path style="fill:#232323;" d="M256,306.21l-48-48V128h96V258.21L256,306.21z M218.667,253.791L256,291.124l37.333-37.333
					V138.667h-74.667V253.791z"/>
			</g>
			<g>
				<circle style="fill:#FBD764;" cx="256" cy="341.334" r="42.667"/>
			</g>
			<g>
				<rect x="213.334" y="250.667" style="fill:#232323;" width="85.333" height="10.667"/>
			</g>
			<g>
				<line style="fill:#FFFFFF;" x1="234.667" y1="256" x2="234.667" y2="133.333"/>
				<rect x="229.334" y="133.333" style="fill:#232323;" width="10.667" height="122.667"/>
			</g>
			<g>
				<line style="fill:#FFFFFF;" x1="257.334" y1="256" x2="257.334" y2="133.333"/>
				<rect x="252" y="133.333" style="fill:#232323;" width="10.667" height="122.667"/>
			</g>
			<g>
				<line style="fill:#FFFFFF;" x1="277.334" y1="256" x2="277.334" y2="133.333"/>
				<rect x="272.001" y="133.333" style="fill:#232323;" width="10.666" height="122.667"/>
			</g>
			<g>
				<polygon style="fill:#FFFFFF;" points="256,350.728 244.86,358.482 248.787,345.488 237.969,337.287 251.542,337.012 
					256,324.186 260.459,337.012 274.032,337.287 263.212,345.488 267.144,358.482 				"/>
			</g>
		</g>
	</g>
</g>
<g id="Layer_1">
</g>
</svg>
