<?xml version="1.0" encoding="iso-8859-1"?>
<!-- Generator: Adobe Illustrator 16.0.0, SVG Export Plug-In . SVG Version: 6.00 Build 0)  -->
<!DOCTYPE svg PUBLIC "-//W3C//DTD SVG 1.1//EN" "http://www.w3.org/Graphics/SVG/1.1/DTD/svg11.dtd">
<svg version="1.1" xmlns="http://www.w3.org/2000/svg" xmlns:xlink="http://www.w3.org/1999/xlink" x="0px" y="0px" width="512px"
	 height="512px" viewBox="0 0 512 512" style="enable-background:new 0 0 512 512;" xml:space="preserve">
<g id="Layer_77">
	<g>
		<g>
			<rect style="fill:#8891BF;" width="512" height="512"/>
		</g>
		<g>
			<g>
				<rect x="202.667" y="309.334" style="fill:#FFFFFF;" width="106.667" height="74.667"/>
			</g>
			<g>
				<rect x="192" y="277.334" style="fill:#FFFFFF;" width="128" height="32"/>
			</g>
			<g>
				<rect x="224" y="309.334" style="fill:#232323;" width="10.667" height="74.667"/>
			</g>
			<g>
				<rect x="213.334" y="277.334" style="fill:#232323;" width="10.667" height="32"/>
			</g>
			<g>
				<rect x="250.667" y="202.667" style="fill:#232323;" width="10.667" height="74.667"/>
			</g>
			<g>
				<g>
					<g>
						<polygon style="fill:#232323;" points="233.847,148.094 237.1,158.256 245.633,149.922 						"/>
					</g>
					<g>
						<polygon style="fill:#232323;" points="230.597,137.938 233.847,148.094 242.381,139.766 						"/>
					</g>
					<g>
						<polygon style="fill:#232323;" points="237.1,158.256 240.352,168.412 248.883,160.084 						"/>
					</g>
					<g>
						<polygon style="fill:#232323;" points="240.352,168.412 243.605,178.573 252.136,170.24 						"/>
					</g>
					<g>
						<polygon style="fill:#232323;" points="243.605,178.573 246.855,188.729 255.389,180.401 						"/>
					</g>
					<g>
						<polygon style="fill:#232323;" points="246.855,188.729 250.107,198.891 258.642,190.558 						"/>
					</g>
				</g>
				<g>
					<g>
						<polygon style="fill:#232323;" points="278.67,148.094 275.417,158.256 266.884,149.922 						"/>
					</g>
					<g>
						<polygon style="fill:#232323;" points="281.92,137.938 278.67,148.094 270.136,139.766 						"/>
					</g>
					<g>
						<polygon style="fill:#232323;" points="275.417,158.256 272.165,168.412 263.634,160.084 						"/>
					</g>
					<g>
						<polygon style="fill:#232323;" points="272.165,168.412 268.912,178.573 260.381,170.24 						"/>
					</g>
					<g>
						<polygon style="fill:#232323;" points="268.912,178.573 265.662,188.729 257.128,180.401 						"/>
					</g>
					<g>
						<polygon style="fill:#232323;" points="265.662,188.729 262.409,198.891 253.875,190.558 						"/>
					</g>
				</g>
				<g>
					<g>
						<path style="fill:#FFFFFF;" d="M275.717,132.849L256,192l-18.708-59.636c-14.175,6.938-23.958,21.458-23.958,38.302
							c0,23.563,19.102,42.667,42.667,42.667s42.667-19.104,42.667-42.667C298.667,154.222,289.35,139.974,275.717,132.849z"/>
					</g>
				</g>
			</g>
			<g>
				<path style="fill:#232323;" d="M277.334,261.334h-26.667V256c0-14.704,11.962-26.667,26.667-26.667h26.667v5.333
					C304.001,249.372,292.038,261.334,277.334,261.334z M262.248,250.667h15.086c6.953,0,12.886-4.458,15.086-10.667h-15.086
					C270.381,240,264.448,244.459,262.248,250.667z"/>
			</g>
			<g>
				<path style="fill:#232323;" d="M261.334,261.334h-26.667c-14.705,0-26.667-11.962-26.667-26.667v-5.333h26.667
					c14.704,0,26.667,11.962,26.667,26.667V261.334z M219.581,240c2.201,6.208,8.133,10.667,15.086,10.667h15.086
					c-2.201-6.208-8.133-10.667-15.086-10.667H219.581z"/>
			</g>
		</g>
	</g>
</g>
<g id="Layer_1">
</g>
</svg>
