<?xml version="1.0" encoding="iso-8859-1"?>
<!-- Generator: Adobe Illustrator 16.0.0, SVG Export Plug-In . SVG Version: 6.00 Build 0)  -->
<!DOCTYPE svg PUBLIC "-//W3C//DTD SVG 1.1//EN" "http://www.w3.org/Graphics/SVG/1.1/DTD/svg11.dtd">
<svg version="1.1" xmlns="http://www.w3.org/2000/svg" xmlns:xlink="http://www.w3.org/1999/xlink" x="0px" y="0px" width="512px"
	 height="512px" viewBox="0 0 512 512" style="enable-background:new 0 0 512 512;" xml:space="preserve">
<g id="Layer_88">
	<g>
		<g>
			<rect style="fill:#FFFFFF;" width="512" height="512"/>
		</g>
		<g>
			<g>
				<rect x="128" y="330.668" style="fill:#232323;" width="256" height="10.666"/>
			</g>
			<g>
				<path style="fill:#FBD764;" d="M298.667,213.334H256c-58.958,0-106.667,28.625-106.667,64c0,23.583,19.083,42.667,42.667,42.667
					h128c23.582,0,42.665-19.084,42.665-42.667C362.666,241.959,334.043,213.334,298.667,213.334"/>
			</g>
			<g>
				<g>
					<path style="fill:#232323;" d="M283.853,308.15c-9.973,0-19.348-3.884-26.4-10.937c-14.553-14.555-14.554-38.239,0-52.796
						c10.09-10.09,33.194-21.331,50.219-21.331c7.576,0,13.519,2.102,17.663,6.248c7.038,7.037,8.156,19.66,3.147,35.546
						c-3.946,12.514-11.102,25.207-18.23,32.334C303.2,304.267,293.825,308.15,283.853,308.15z M307.671,233.753
						c-14.005,0-34.08,9.612-42.676,18.206c-10.396,10.398-10.396,27.316,0,37.714c5.037,5.037,11.733,7.811,18.857,7.811
						c7.122,0,13.82-2.773,18.855-7.811c5.822-5.823,12.236-17.338,15.601-28.002c3.645-11.558,3.451-20.828-0.516-24.794
						C315.72,234.804,312.314,233.753,307.671,233.753z"/>
				</g>
				<g>
					
						<rect x="335.087" y="187.581" transform="matrix(0.7071 0.7071 -0.7071 0.7071 251.2153 -177.9641)" style="fill:#232323;" width="10.665" height="53.334"/>
				</g>
				<g>
					<path style="fill:#232323;" d="M366.82,203.85c-4.273,0-8.295-1.664-11.315-4.688c-6.237-6.233-6.239-16.383-0.003-22.624
						c3.026-3.023,7.045-4.688,11.318-4.688s8.291,1.664,11.313,4.688c3.021,3.021,4.685,7.039,4.685,11.313
						c0,4.275-1.664,8.293-4.685,11.313C375.111,202.184,371.094,203.85,366.82,203.85z M366.82,182.518
						c-1.425,0-2.766,0.555-3.773,1.563c-2.078,2.079-2.078,5.462,0,7.539c2.016,2.018,5.531,2.016,7.541,0.002
						c1.011-1.008,1.563-2.346,1.563-3.77c0-1.426-0.555-2.766-1.563-3.773S368.242,182.518,366.82,182.518z"/>
				</g>
			</g>
		</g>
	</g>
</g>
<g id="Layer_1">
</g>
</svg>
