<?xml version="1.0" encoding="iso-8859-1"?>
<!-- Generator: Adobe Illustrator 16.0.0, SVG Export Plug-In . SVG Version: 6.00 Build 0)  -->
<!DOCTYPE svg PUBLIC "-//W3C//DTD SVG 1.1//EN" "http://www.w3.org/Graphics/SVG/1.1/DTD/svg11.dtd">
<svg version="1.1" xmlns="http://www.w3.org/2000/svg" xmlns:xlink="http://www.w3.org/1999/xlink" x="0px" y="0px" width="512px"
	 height="512px" viewBox="0 0 512 512" style="enable-background:new 0 0 512 512;" xml:space="preserve">
<g id="Layer_26">
	<g>
		<g>
			<rect style="fill:#FBD764;" width="512" height="512"/>
		</g>
		<g>
			<g>
				<path style="fill:#FFFFFF;" d="M330.668,138.667L320.001,128l0,0l-10.667,10.667L298.667,128l0,0l-10.666,10.667L277.334,128
					l0,0l-10.667,10.667L256,128l0,0l-10.667,10.667L234.667,128l0,0L224,138.667L213.334,128l0,0l-10.667,10.667L192,128l0,0
					l-10.667,10.667L170.667,128v32v202.667c0,11.781,9.552,21.333,21.333,21.333h64h64c11.781,0,21.333-9.552,21.333-21.333V160
					v-32L330.668,138.667z"/>
			</g>
			<g>
				<rect x="170.667" y="192" style="fill:#232323;" width="170.667" height="10.667"/>
			</g>
			<g>
				<circle style="fill:#FBD764;" cx="256" cy="266.667" r="42.667"/>
			</g>
			<g>
				<rect x="170.667" y="330.668" style="fill:#232323;" width="170.667" height="10.666"/>
			</g>
			<g>
				<g>
					<rect x="250.667" y="213.334" style="fill:#232323;" width="10.667" height="106.667"/>
				</g>
				<g>
					<path style="fill:#232323;" d="M256,293.334c-14.704,0-26.667-11.962-26.667-26.667H240c0,8.823,7.177,16,16,16s16-7.177,16-16
						h10.666C282.667,281.372,270.705,293.334,256,293.334z"/>
				</g>
				<g>
					<path style="fill:#232323;" d="M256,272.001c-14.704,0-26.667-11.963-26.667-26.667H240c0,8.823,7.177,16,16,16s16-7.177,16-16
						h10.666C282.667,260.038,270.705,272.001,256,272.001z"/>
				</g>
				<g>
					<path style="fill:#232323;" d="M256,250.667c-14.704,0-26.667-11.962-26.667-26.667H240c0,8.823,7.177,16,16,16s16-7.177,16-16
						h10.666C282.667,238.705,270.705,250.667,256,250.667z"/>
				</g>
				<g>
					<rect x="272.001" y="224" style="fill:#232323;" width="10.666" height="42.667"/>
				</g>
				<g>
					<rect x="229.334" y="224" style="fill:#232323;" width="10.667" height="42.667"/>
				</g>
			</g>
		</g>
	</g>
</g>
<g id="Layer_1">
</g>
</svg>
