<?xml version="1.0" encoding="iso-8859-1"?>
<!-- Generator: Adobe Illustrator 16.0.0, SVG Export Plug-In . SVG Version: 6.00 Build 0)  -->
<!DOCTYPE svg PUBLIC "-//W3C//DTD SVG 1.1//EN" "http://www.w3.org/Graphics/SVG/1.1/DTD/svg11.dtd">
<svg version="1.1" xmlns="http://www.w3.org/2000/svg" xmlns:xlink="http://www.w3.org/1999/xlink" x="0px" y="0px" width="512px"
	 height="512px" viewBox="0 0 512 512" style="enable-background:new 0 0 512 512;" xml:space="preserve">
<g id="Layer_177">
	<g>
		<g>
			<rect style="fill:#FFFFFF;" width="512" height="512"/>
		</g>
		<g>
			<g>
				<g>
					<rect x="128" y="181.334" style="fill:#FBD764;" width="256" height="181.334"/>
				</g>
			</g>
			<g>
				<rect x="165.334" y="138.667" style="fill:#232323;" width="10.667" height="21.333"/>
			</g>
			<g>
				<rect x="336.001" y="138.667" style="fill:#232323;" width="10.665" height="21.333"/>
			</g>
			<g>
				<g>
					<g>
						<rect x="341.334" y="213.334" style="fill:#232323;" width="21.332" height="21.333"/>
					</g>
				</g>
				<g>
					<g>
						<rect x="309.334" y="213.334" style="fill:#232323;" width="21.334" height="21.333"/>
					</g>
				</g>
				<g>
					<g>
						<rect x="277.334" y="213.334" style="fill:#FFFFFF;" width="21.333" height="21.333"/>
					</g>
				</g>
				<g>
					<g>
						<rect x="245.334" y="213.334" style="fill:#FFFFFF;" width="21.333" height="21.333"/>
					</g>
				</g>
				<g>
					<g>
						<rect x="213.334" y="213.334" style="fill:#FFFFFF;" width="21.333" height="21.333"/>
					</g>
				</g>
			</g>
			<g>
				<g>
					<g>
						<rect x="341.334" y="245.334" style="fill:#232323;" width="21.332" height="21.333"/>
					</g>
				</g>
				<g>
					<g>
						<rect x="309.334" y="245.334" style="fill:#232323;" width="21.334" height="21.333"/>
					</g>
				</g>
				<g>
					<g>
						<rect x="277.334" y="245.334" style="fill:#FFFFFF;" width="21.333" height="21.333"/>
					</g>
				</g>
				<g>
					<g>
						<rect x="245.334" y="245.334" style="fill:#FFFFFF;" width="21.333" height="21.333"/>
					</g>
				</g>
				<g>
					<g>
						<rect x="213.334" y="245.334" style="fill:#FFFFFF;" width="21.333" height="21.333"/>
					</g>
				</g>
				<g>
					<g>
						<rect x="181.334" y="245.334" style="fill:#FFFFFF;" width="21.333" height="21.333"/>
					</g>
				</g>
				<g>
					<g>
						<rect x="149.333" y="245.334" style="fill:#FFFFFF;" width="21.333" height="21.333"/>
					</g>
				</g>
			</g>
			<g>
				<g>
					<g>
						<rect x="341.334" y="277.334" style="fill:#232323;" width="21.332" height="21.333"/>
					</g>
				</g>
				<g>
					<g>
						<rect x="309.334" y="277.334" style="fill:#232323;" width="21.334" height="21.333"/>
					</g>
				</g>
				<g>
					<g>
						<rect x="277.334" y="277.334" style="fill:#FFFFFF;" width="21.333" height="21.333"/>
					</g>
				</g>
				<g>
					<g>
						<rect x="245.334" y="277.334" style="fill:#FFFFFF;" width="21.333" height="21.333"/>
					</g>
				</g>
				<g>
					<g>
						<rect x="213.334" y="277.334" style="fill:#FFFFFF;" width="21.333" height="21.333"/>
					</g>
				</g>
				<g>
					<g>
						<rect x="181.334" y="277.334" style="fill:#FFFFFF;" width="21.333" height="21.333"/>
					</g>
				</g>
				<g>
					<g>
						<rect x="149.333" y="277.334" style="fill:#FFFFFF;" width="21.333" height="21.333"/>
					</g>
				</g>
			</g>
			<g>
				<g>
					<g>
						<rect x="277.334" y="309.334" style="fill:#FFFFFF;" width="21.333" height="21.334"/>
					</g>
				</g>
				<g>
					<g>
						<rect x="245.334" y="309.334" style="fill:#FFFFFF;" width="21.333" height="21.334"/>
					</g>
				</g>
				<g>
					<g>
						<rect x="213.334" y="309.334" style="fill:#FFFFFF;" width="21.333" height="21.334"/>
					</g>
				</g>
				<g>
					<g>
						<rect x="181.334" y="309.334" style="fill:#FFFFFF;" width="21.333" height="21.334"/>
					</g>
				</g>
				<g>
					<g>
						<rect x="149.333" y="309.334" style="fill:#FFFFFF;" width="21.333" height="21.334"/>
					</g>
				</g>
			</g>
			<g>
				<rect x="128" y="170.667" style="fill:#232323;" width="256" height="10.667"/>
			</g>
		</g>
	</g>
</g>
<g id="Layer_1">
</g>
</svg>
